{
  "about": {
    "title": "Vem är jag?",
    "text": [
      "Jag heter som sagt Christoffer och arbetar som frontend utvecklare. Jag brinner för att hacka JavaScript kod och lära mig nya saker.",
      "Som person får jag ofta höra att jag är väldigt lugn och inger trygghet, vilket jag är beredd att hålla med om. Jag är ambitiös och strävar alltid efter att effektivisera mitt arbetsflöde för att kunna arbeta så snabbt och effektivt som möjligt.",
      "När jag hackar kod så sitter jag för det mesta i ramverken AngularJS och Firebase men har även börjat kika på utveckling i NodeJS, Express och MongoDB. Som preprocessor för min CSS så kör jag alltid SASS. I projektsektionen finner du lite av det jag byggt hittills.",
      "Sitter jag inte framför datorn och hackar kod så finner ni mig garanterat framför tv:n där jag följer Premier League med stor passion. Brukar även spela själv med jämna mellanrum samt gymma ett par gånger i veckan."
    ],
    "icon": "",
    "buttonText": "Kontakta mig"
  }
}